{
  "data": {
    "curPage": 2,
    "datas": [
      {
        "apkLink": "",
        "audit": 1,
        "author": "郭霖",
        "canEdit": false,
        "chapterId": 409,
        "chapterName": "郭霖",
        "collect": false,
        "courseId": 13,
        "desc": "",
        "descMd": "",
        "envelopePic": "",
        "fresh": false,
        "id": 14455,
        "link": "https://mp.weixin.qq.com/s/zdoAgj4w6yp1krDvduK6Tg",
        "niceDate": "2天前",
        "niceShareDate": "1天前",
        "origin": "",
        "prefix": "",
        "projectLink": "",
        "publishTime": 1595347200000,
        "realSuperChapterId": 407,
        "selfVisible": 0,
        "shareDate": 1595425325000,
        "shareUser": "",
        "superChapterId": 408,
        "superChapterName": "公众号",
        "tags": [
          {
            "name": "公众号",
            "url": "/wxarticle/list/409/1"
          }
        ],
        "title": "从零开始实现一个插件化框架",
        "type": 0,
        "userId": -1,
        "visible": 1,
        "zan": 0
      },
      {
        "apkLink": "",
        "audit": 1,
        "author": "",
        "canEdit": false,
        "chapterId": 502,
        "chapterName": "自助",
        "collect": false,
        "courseId": 13,
        "desc": "",
        "descMd": "",
        "envelopePic": "",
        "fresh": false,
        "id": 14440,
        "link": "https://juejin.im/post/5efbe885e51d453492016344",
        "niceDate": "2天前",
        "niceShareDate": "2天前",
        "origin": "",
        "prefix": "",
        "projectLink": "",
        "publishTime": 1595322466000,
        "realSuperChapterId": 493,
        "selfVisible": 0,
        "shareDate": 1595321818000,
        "shareUser": "蓝天",
        "superChapterId": 494,
        "superChapterName": "广场Tab",
        "tags": [],
        "title": "手把手教你撸一个一行代码请求权限的框架",
        "type": 0,
        "userId": 29034,
        "visible": 1,
        "zan": 0
      },
      {
        "apkLink": "",
        "audit": 1,
        "author": "",
        "canEdit": false,
        "chapterId": 502,
        "chapterName": "自助",
        "collect": false,
        "courseId": 13,
        "desc": "",
        "descMd": "",
        "envelopePic": "",
        "fresh": false,
        "id": 14439,
        "link": "https://blog.csdn.net/qq_28779083/article/details/106998367",
        "niceDate": "2天前",
        "niceShareDate": "2天前",
        "origin": "",
        "prefix": "",
        "projectLink": "",
        "publishTime": 1595306560000,
        "realSuperChapterId": 493,
        "selfVisible": 0,
        "shareDate": 1595306560000,
        "shareUser": "mtjsoft",
        "superChapterId": 494,
        "superChapterName": "广场Tab",
        "tags": [],
        "title": "Flutter入门项目《玩安卓Flutter版》",
        "type": 0,
        "userId": 468,
        "visible": 1,
        "zan": 0
      },
      {
        "apkLink": "",
        "audit": 1,
        "author": "",
        "canEdit": false,
        "chapterId": 308,
        "chapterName": "多线程",
        "collect": false,
        "courseId": 13,
        "desc": "",
        "descMd": "",
        "envelopePic": "",
        "fresh": false,
        "id": 14429,
        "link": "https://blog.csdn.net/u010687392/article/details/50549236",
        "niceDate": "2020-07-21 00:08",
        "niceShareDate": "2020-07-20 20:29",
        "origin": "",
        "prefix": "",
        "projectLink": "",
        "publishTime": 1595261339000,
        "realSuperChapterId": 244,
        "selfVisible": 0,
        "shareDate": 1595248140000,
        "shareUser": "深红骑士",
        "superChapterId": 245,
        "superChapterName": "Java深入",
        "tags": [],
        "title": "并发编程之ThreadLocal、Volatile、synchronized、Atomic关键字扫盲",
        "type": 0,
        "userId": 29303,
        "visible": 1,
        "zan": 0
      },
      {
        "apkLink": "",
        "audit": 1,
        "author": "",
        "canEdit": false,
        "chapterId": 510,
        "chapterName": "大厂分享",
        "collect": false,
        "courseId": 13,
        "desc": "",
        "descMd": "",
        "envelopePic": "",
        "fresh": false,
        "id": 14433,
        "link": "https://juejin.im/post/5f144b2f6fb9a07e6f7b7fce#comment",
        "niceDate": "2020-07-21 00:08",
        "niceShareDate": "2020-07-21 00:05",
        "origin": "",
        "prefix": "",
        "projectLink": "",
        "publishTime": 1595261306000,
        "realSuperChapterId": 509,
        "selfVisible": 0,
        "shareDate": 1595261147000,
        "shareUser": "鸿洋",
        "superChapterId": 510,
        "superChapterName": "大厂对外分享",
        "tags": [],
        "title": "今日头条 Android &#39;秒&#39; 级编译速度优化",
        "type": 0,
        "userId": 2,
        "visible": 1,
        "zan": 0
      },
      {
        "apkLink": "",
        "audit": 1,
        "author": "",
        "canEdit": false,
        "chapterId": 444,
        "chapterName": "androidx",
        "collect": false,
        "courseId": 13,
        "desc": "",
        "descMd": "",
        "envelopePic": "",
        "fresh": false,
        "id": 14434,
        "link": "https://juejin.im/post/5f02bb50f265da22a8514e49",
        "niceDate": "2020-07-21 00:08",
        "niceShareDate": "2020-07-21 00:06",
        "origin": "",
        "prefix": "",
        "projectLink": "",
        "publishTime": 1595261300000,
        "realSuperChapterId": 39,
        "selfVisible": 0,
        "shareDate": 1595261179000,
        "shareUser": "鸿洋",
        "superChapterId": 54,
        "superChapterName": "5.+高新技术",
        "tags": [],
        "title": "错误的ViewPager用法（填坑）：ViewPager2做了什么？",
        "type": 0,
        "userId": 2,
        "visible": 1,
        "zan": 0
      },
      {
        "apkLink": "",
        "audit": 1,
        "author": "",
        "canEdit": false,
        "chapterId": 142,
        "chapterName": "ConstraintLayout",
        "collect": false,
        "courseId": 13,
        "desc": "",
        "descMd": "",
        "envelopePic": "",
        "fresh": false,
        "id": 14436,
        "link": "https://juejin.im/post/5f0e9eea6fb9a07e7e0444e3",
        "niceDate": "2020-07-21 00:08",
        "niceShareDate": "2020-07-21 00:06",
        "origin": "",
        "prefix": "",
        "projectLink": "",
        "publishTime": 1595261288000,
        "realSuperChapterId": 39,
        "selfVisible": 0,
        "shareDate": 1595261188000,
        "shareUser": "鸿洋",
        "superChapterId": 54,
        "superChapterName": "5.+高新技术",
        "tags": [],
        "title": "Android MotionLayout动画：续写ConstraintLayout新篇章",
        "type": 0,
        "userId": 2,
        "visible": 1,
        "zan": 0
      },
      {
        "apkLink": "",
        "audit": 1,
        "author": "谷歌开发者",
        "canEdit": false,
        "chapterId": 415,
        "chapterName": "谷歌开发者",
        "collect": false,
        "courseId": 13,
        "desc": "",
        "descMd": "",
        "envelopePic": "",
        "fresh": false,
        "id": 14442,
        "link": "https://mp.weixin.qq.com/s/iX31RclvKX7Bz8EYvMN-rA",
        "niceDate": "2020-07-21 00:00",
        "niceShareDate": "2天前",
        "origin": "",
        "prefix": "",
        "projectLink": "",
        "publishTime": 1595260800000,
        "realSuperChapterId": 407,
        "selfVisible": 0,
        "shareDate": 1595335846000,
        "shareUser": "",
        "superChapterId": 408,
        "superChapterName": "公众号",
        "tags": [
          {
            "name": "公众号",
            "url": "/wxarticle/list/415/1"
          }
        ],
        "title": "划重点 | Android Jetpack 三大重要更新！",
        "type": 0,
        "userId": -1,
        "visible": 1,
        "zan": 0
      },
      {
        "apkLink": "",
        "audit": 1,
        "author": "鸿洋",
        "canEdit": false,
        "chapterId": 408,
        "chapterName": "鸿洋",
        "collect": false,
        "courseId": 13,
        "desc": "",
        "descMd": "",
        "envelopePic": "",
        "fresh": false,
        "id": 14443,
        "link": "https://mp.weixin.qq.com/s/MkWKMKj3yRa0H20nb9qcag",
        "niceDate": "2020-07-21 00:00",
        "niceShareDate": "2天前",
        "origin": "",
        "prefix": "",
        "projectLink": "",
        "publishTime": 1595260800000,
        "realSuperChapterId": 407,
        "selfVisible": 0,
        "shareDate": 1595335868000,
        "shareUser": "",
        "superChapterId": 408,
        "superChapterName": "公众号",
        "tags": [
          {
            "name": "公众号",
            "url": "/wxarticle/list/408/1"
          }
        ],
        "title": "直面底层：&ldquo;吹上天&rdquo;的协程，带你深入源码分析",
        "type": 0,
        "userId": -1,
        "visible": 1,
        "zan": 0
      },
      {
        "apkLink": "",
        "audit": 1,
        "author": "承香墨影",
        "canEdit": false,
        "chapterId": 411,
        "chapterName": "承香墨影",
        "collect": false,
        "courseId": 13,
        "desc": "",
        "descMd": "",
        "envelopePic": "",
        "fresh": false,
        "id": 14444,
        "link": "https://mp.weixin.qq.com/s/lE9SXeG89SPFdY-fWZeEDg",
        "niceDate": "2020-07-21 00:00",
        "niceShareDate": "2天前",
        "origin": "",
        "prefix": "",
        "projectLink": "",
        "publishTime": 1595260800000,
        "realSuperChapterId": 407,
        "selfVisible": 0,
        "shareDate": 1595335895000,
        "shareUser": "",
        "superChapterId": 408,
        "superChapterName": "公众号",
        "tags": [
          {
            "name": "公众号",
            "url": "/wxarticle/list/411/1"
          }
        ],
        "title": "单例模式 | 双重检测 就比 饿汉式 高级？那 Kotlin 的 object 为什么用饿汉式？",
        "type": 0,
        "userId": -1,
        "visible": 1,
        "zan": 0
      },
      {
        "apkLink": "",
        "audit": 1,
        "author": "郭霖",
        "canEdit": false,
        "chapterId": 409,
        "chapterName": "郭霖",
        "collect": false,
        "courseId": 13,
        "desc": "",
        "descMd": "",
        "envelopePic": "",
        "fresh": false,
        "id": 14445,
        "link": "https://mp.weixin.qq.com/s/h8MpzZfl62sVuzZ8M721Tw",
        "niceDate": "2020-07-21 00:00",
        "niceShareDate": "2天前",
        "origin": "",
        "prefix": "",
        "projectLink": "",
        "publishTime": 1595260800000,
        "realSuperChapterId": 407,
        "selfVisible": 0,
        "shareDate": 1595335922000,
        "shareUser": "",
        "superChapterId": 408,
        "superChapterName": "公众号",
        "tags": [
          {
            "name": "公众号",
            "url": "/wxarticle/list/409/1"
          }
        ],
        "title": "PermissionX重磅更新，支持自定义权限提醒对话框",
        "type": 0,
        "userId": -1,
        "visible": 1,
        "zan": 0
      },
      {
        "apkLink": "",
        "audit": 1,
        "author": "",
        "canEdit": false,
        "chapterId": 502,
        "chapterName": "自助",
        "collect": false,
        "courseId": 13,
        "desc": "",
        "descMd": "",
        "envelopePic": "",
        "fresh": false,
        "id": 14428,
        "link": "https://blog.csdn.net/zcpHappy/article/details/107468806",
        "niceDate": "2020-07-20 18:09",
        "niceShareDate": "2020-07-20 18:09",
        "origin": "",
        "prefix": "",
        "projectLink": "",
        "publishTime": 1595239743000,
        "realSuperChapterId": 493,
        "selfVisible": 0,
        "shareDate": 1595239743000,
        "shareUser": "zcp1993",
        "superChapterId": 494,
        "superChapterName": "广场Tab",
        "tags": [],
        "title": "Flutter项目-------一款以Redux为架构的Wan Android客户端 ",
        "type": 0,
        "userId": 65680,
        "visible": 1,
        "zan": 0
      },
      {
        "apkLink": "",
        "audit": 1,
        "author": "",
        "canEdit": false,
        "chapterId": 502,
        "chapterName": "自助",
        "collect": false,
        "courseId": 13,
        "desc": "",
        "descMd": "",
        "envelopePic": "",
        "fresh": false,
        "id": 14417,
        "link": "https://juejin.im/post/5aa233d5518825558251f3e8",
        "niceDate": "2020-07-20 09:43",
        "niceShareDate": "2020-07-20 09:43",
        "origin": "",
        "prefix": "",
        "projectLink": "",
        "publishTime": 1595209407000,
        "realSuperChapterId": 493,
        "selfVisible": 0,
        "shareDate": 1595209407000,
        "shareUser": "躬行之",
        "superChapterId": 494,
        "superChapterName": "广场Tab",
        "tags": [],
        "title": "Android开发之AIDL的使用详解",
        "type": 0,
        "userId": 23270,
        "visible": 1,
        "zan": 0
      },
      {
        "apkLink": "",
        "audit": 1,
        "author": "",
        "canEdit": false,
        "chapterId": 313,
        "chapterName": "字节码",
        "collect": false,
        "courseId": 13,
        "desc": "",
        "descMd": "",
        "envelopePic": "",
        "fresh": false,
        "id": 14403,
        "link": "https://www.jianshu.com/p/d3ccd97ec5d1",
        "niceDate": "2020-07-20 00:00",
        "niceShareDate": "2020-07-19 14:17",
        "origin": "",
        "prefix": "",
        "projectLink": "",
        "publishTime": 1595174437000,
        "realSuperChapterId": 244,
        "selfVisible": 0,
        "shareDate": 1595139462000,
        "shareUser": "鸿洋",
        "superChapterId": 245,
        "superChapterName": "Java深入",
        "tags": [],
        "title": "ASM简介（二）",
        "type": 0,
        "userId": 2,
        "visible": 1,
        "zan": 0
      },
      {
        "apkLink": "",
        "audit": 1,
        "author": "",
        "canEdit": false,
        "chapterId": 313,
        "chapterName": "字节码",
        "collect": false,
        "courseId": 13,
        "desc": "",
        "descMd": "",
        "envelopePic": "",
        "fresh": false,
        "id": 14402,
        "link": "https://www.jianshu.com/p/85502e42bbb6",
        "niceDate": "2020-07-20 00:00",
        "niceShareDate": "2020-07-19 14:17",
        "origin": "",
        "prefix": "",
        "projectLink": "",
        "publishTime": 1595174418000,
        "realSuperChapterId": 244,
        "selfVisible": 0,
        "shareDate": 1595139445000,
        "shareUser": "鸿洋",
        "superChapterId": 245,
        "superChapterName": "Java深入",
        "tags": [],
        "title": "ASM简介（一）",
        "type": 0,
        "userId": 2,
        "visible": 1,
        "zan": 0
      },
      {
        "apkLink": "",
        "audit": 1,
        "author": "",
        "canEdit": false,
        "chapterId": 228,
        "chapterName": "辅助 or 工具类",
        "collect": false,
        "courseId": 13,
        "desc": "",
        "descMd": "",
        "envelopePic": "",
        "fresh": false,
        "id": 14413,
        "link": "https://mp.weixin.qq.com/s?__biz=Mzg3NzA3MjE2Ng==&amp;mid=2247483979&amp;idx=1&amp;sn=cb8f14299d9c672ea8d90e446efff695&amp;chksm=cf29d802f85e51144958afce4dec943c21eda75b86df8f86f64b1e5ae09e540f32a760a91727&amp;token=1589915594&amp;lang=zh_CN#rd",
        "niceDate": "2020-07-19 23:58",
        "niceShareDate": "2020-07-19 18:39",
        "origin": "",
        "prefix": "",
        "projectLink": "",
        "publishTime": 1595174336000,
        "realSuperChapterId": 156,
        "selfVisible": 0,
        "shareDate": 1595155155000,
        "shareUser": "鸿洋",
        "superChapterId": 135,
        "superChapterName": "项目必备",
        "tags": [],
        "title": "B站弹幕库DanmakuFlameMaster源码浅析",
        "type": 0,
        "userId": 2,
        "visible": 1,
        "zan": 0
      },
      {
        "apkLink": "",
        "audit": 1,
        "author": "",
        "canEdit": false,
        "chapterId": 198,
        "chapterName": "基础概念",
        "collect": false,
        "courseId": 13,
        "desc": "",
        "descMd": "",
        "envelopePic": "",
        "fresh": false,
        "id": 14411,
        "link": "https://juejin.im/entry/5dd11b776fb9a01fe4450855",
        "niceDate": "2020-07-19 23:58",
        "niceShareDate": "2020-07-19 18:23",
        "origin": "",
        "prefix": "",
        "projectLink": "",
        "publishTime": 1595174310000,
        "realSuperChapterId": 167,
        "selfVisible": 0,
        "shareDate": 1595154237000,
        "shareUser": "的一幕",
        "superChapterId": 168,
        "superChapterName": "基础知识",
        "tags": [],
        "title": "你真的搞懂事件分发？",
        "type": 0,
        "userId": 30339,
        "visible": 1,
        "zan": 0
      },
      {
        "apkLink": "",
        "audit": 1,
        "author": "",
        "canEdit": false,
        "chapterId": 73,
        "chapterName": "面试相关",
        "collect": false,
        "courseId": 13,
        "desc": "",
        "descMd": "",
        "envelopePic": "",
        "fresh": false,
        "id": 14412,
        "link": "https://juejin.im/entry/5d9fe6e8f265da5bb977cb5b",
        "niceDate": "2020-07-19 23:57",
        "niceShareDate": "2020-07-19 18:38",
        "origin": "",
        "prefix": "",
        "projectLink": "",
        "publishTime": 1595174236000,
        "realSuperChapterId": 53,
        "selfVisible": 0,
        "shareDate": 1595155119000,
        "shareUser": "的一幕",
        "superChapterId": 81,
        "superChapterName": "热门专题",
        "tags": [],
        "title": "安卓面试笔记整理",
        "type": 0,
        "userId": 30339,
        "visible": 1,
        "zan": 0
      },
      {
        "apkLink": "",
        "audit": 1,
        "author": "xiaoyang",
        "canEdit": false,
        "chapterId": 440,
        "chapterName": "官方",
        "collect": false,
        "courseId": 13,
        "desc": "<p>谈到 RecyclerView，相信不少同学，张口都能说出它的几级缓存机制：</p>\r\n<p>例如：</p>\r\n<ul>\r\n<li>一级缓存：mAttachedScrap 和 mChangedScrap </li>\r\n<li>二级缓存：mCachedViews </li>\r\n<li>三级缓存：ViewCacheExtension </li>\r\n<li>四级缓存：RecycledViewPool </li>\r\n</ul>\r\n<p>然后说怎么用，就是先从 1 级找，然后 2 级...然后4 级，找不到 create ViewHolder。</p>\r\n<p>那么，有没有思考过，其实上面几级缓存都属于“内存缓存&quot;，那么这么分级肯定有一定区别。</p>\r\n<p>问题来了：</p>\r\n<ol>\r\n<li>每一级缓存具体作用是什么？</li>\r\n<li>分别在什么场景下会用到哪些缓存呢？</li>\r\n</ol>",
        "descMd": "",
        "envelopePic": "",
        "fresh": false,
        "id": 14222,
        "link": "https://www.wanandroid.com/wenda/show/14222",
        "niceDate": "2020-07-19 23:56",
        "niceShareDate": "2020-07-08 23:03",
        "origin": "",
        "prefix": "",
        "projectLink": "",
        "publishTime": 1595174206000,
        "realSuperChapterId": 439,
        "selfVisible": 0,
        "shareDate": 1594220631000,
        "shareUser": "",
        "superChapterId": 440,
        "superChapterName": "问答",
        "tags": [
          {
            "name": "本站发布",
            "url": "/article/list/0?cid=440"
          },
          {
            "name": "问答",
            "url": "/wenda"
          }
        ],
        "title": "每日一问 | RecyclerView的多级缓存机制，每级缓存到底起到什么样的作用？",
        "type": 0,
        "userId": 2,
        "visible": 1,
        "zan": 17
      },
      {
        "apkLink": "",
        "audit": 1,
        "author": "",
        "canEdit": false,
        "chapterId": 502,
        "chapterName": "自助",
        "collect": false,
        "courseId": 13,
        "desc": "",
        "descMd": "",
        "envelopePic": "",
        "fresh": false,
        "id": 14394,
        "link": "https://juejin.im/post/5f0b1d18e51d453460292e2f",
        "niceDate": "2020-07-18 17:13",
        "niceShareDate": "2020-07-18 16:36",
        "origin": "",
        "prefix": "",
        "projectLink": "",
        "publishTime": 1595063634000,
        "realSuperChapterId": 493,
        "selfVisible": 0,
        "shareDate": 1595061366000,
        "shareUser": "的一幕",
        "superChapterId": 494,
        "superChapterName": "广场Tab",
        "tags": [],
        "title": "android自定义选词填空view",
        "type": 0,
        "userId": 30339,
        "visible": 1,
        "zan": 0
      }
    ],
    "offset": 20,
    "over": false,
    "pageCount": 446,
    "size": 20,
    "total": 8916
  },
  "errorCode": 0,
  "errorMsg": ""
}