{
  "data": {
    "curPage": 1,
    "datas": [
      {
        "apkLink": "",
        "audit": 1,
        "author": "",
        "canEdit": false,
        "chapterId": 502,
        "chapterName": "自助",
        "collect": false,
        "courseId": 13,
        "desc": "",
        "descMd": "",
        "envelopePic": "",
        "fresh": true,
        "id": 14479,
        "link": "https://juejin.im/post/5f19893ff265da22f42432ab",
        "niceDate": "53分钟前",
        "niceShareDate": "53分钟前",
        "origin": "",
        "prefix": "",
        "projectLink": "",
        "publishTime": 1595556417000,
        "realSuperChapterId": 493,
        "selfVisible": 0,
        "shareDate": 1595556417000,
        "shareUser": "徐公码字",
        "superChapterId": 494,
        "superChapterName": "广场Tab",
        "tags": [],
        "title": "java 版剑指offer算法集锦",
        "type": 0,
        "userId": 5339,
        "visible": 1,
        "zan": 0
      },
      {
        "apkLink": "",
        "audit": 1,
        "author": "",
        "canEdit": false,
        "chapterId": 502,
        "chapterName": "自助",
        "collect": false,
        "courseId": 13,
        "desc": "",
        "descMd": "",
        "envelopePic": "",
        "fresh": true,
        "id": 14478,
        "link": "https://juejin.im/post/5f17151d5188252e527a04a0",
        "niceDate": "1小时前",
        "niceShareDate": "1小时前",
        "origin": "",
        "prefix": "",
        "projectLink": "",
        "publishTime": 1595555662000,
        "realSuperChapterId": 493,
        "selfVisible": 0,
        "shareDate": 1595555662000,
        "shareUser": "Amter",
        "superChapterId": 494,
        "superChapterName": "广场Tab",
        "tags": [],
        "title": "Android 网络编程之HTTPS详解",
        "type": 0,
        "userId": 49976,
        "visible": 1,
        "zan": 0
      },
      {
        "apkLink": "",
        "audit": 1,
        "author": "",
        "canEdit": false,
        "chapterId": 502,
        "chapterName": "自助",
        "collect": false,
        "courseId": 13,
        "desc": "",
        "descMd": "",
        "envelopePic": "",
        "fresh": true,
        "id": 14468,
        "link": "https://blog.csdn.net/summerrse/article/details/107542561",
        "niceDate": "17小时前",
        "niceShareDate": "17小时前",
        "origin": "",
        "prefix": "",
        "projectLink": "",
        "publishTime": 1595496948000,
        "realSuperChapterId": 493,
        "selfVisible": 0,
        "shareDate": 1595496948000,
        "shareUser": "zzs1994",
        "superChapterId": 494,
        "superChapterName": "广场Tab",
        "tags": [],
        "title": "Jetpack Paging3分页库",
        "type": 0,
        "userId": 27843,
        "visible": 1,
        "zan": 0
      },
      {
        "apkLink": "",
        "audit": 1,
        "author": "",
        "canEdit": false,
        "chapterId": 502,
        "chapterName": "自助",
        "collect": false,
        "courseId": 13,
        "desc": "",
        "descMd": "",
        "envelopePic": "",
        "fresh": true,
        "id": 14465,
        "link": "https://juejin.im/post/5f16cf76f265da22fd6399ef",
        "niceDate": "1天前",
        "niceShareDate": "1天前",
        "origin": "",
        "prefix": "",
        "projectLink": "",
        "publishTime": 1595471530000,
        "realSuperChapterId": 493,
        "selfVisible": 0,
        "shareDate": 1595471530000,
        "shareUser": "逮虾户",
        "superChapterId": 494,
        "superChapterName": "广场Tab",
        "tags": [],
        "title": "Thread也会OOM吗？",
        "type": 0,
        "userId": 63284,
        "visible": 1,
        "zan": 0
      },
      {
        "apkLink": "",
        "audit": 1,
        "author": "",
        "canEdit": false,
        "chapterId": 486,
        "chapterName": "LiveData",
        "collect": false,
        "courseId": 13,
        "desc": "",
        "descMd": "",
        "envelopePic": "",
        "fresh": false,
        "id": 14457,
        "link": "https://juejin.im/post/5f171848f265da22fd639a56",
        "niceDate": "1天前",
        "niceShareDate": "1天前",
        "origin": "",
        "prefix": "",
        "projectLink": "",
        "publishTime": 1595434112000,
        "realSuperChapterId": 422,
        "selfVisible": 0,
        "shareDate": 1595433842000,
        "shareUser": "鸿洋",
        "superChapterId": 423,
        "superChapterName": "Jetpack",
        "tags": [],
        "title": "自己动手改造 Jetpack LiveData",
        "type": 0,
        "userId": 2,
        "visible": 1,
        "zan": 0
      },
      {
        "apkLink": "",
        "audit": 1,
        "author": "",
        "canEdit": false,
        "chapterId": 78,
        "chapterName": "性能优化",
        "collect": false,
        "courseId": 13,
        "desc": "",
        "descMd": "",
        "envelopePic": "",
        "fresh": false,
        "id": 14458,
        "link": "https://juejin.im/post/5f168dd9f265da22ce394a7a",
        "niceDate": "1天前",
        "niceShareDate": "1天前",
        "origin": "",
        "prefix": "",
        "projectLink": "",
        "publishTime": 1595434100000,
        "realSuperChapterId": 53,
        "selfVisible": 0,
        "shareDate": 1595433859000,
        "shareUser": "鸿洋",
        "superChapterId": 81,
        "superChapterName": "热门专题",
        "tags": [],
        "title": "一个更贴近 android 场景的启动框架 | Anchors",
        "type": 0,
        "userId": 2,
        "visible": 1,
        "zan": 0
      },
      {
        "apkLink": "",
        "audit": 1,
        "author": "",
        "canEdit": false,
        "chapterId": 228,
        "chapterName": "辅助 or 工具类",
        "collect": false,
        "courseId": 13,
        "desc": "",
        "descMd": "",
        "envelopePic": "",
        "fresh": false,
        "id": 14459,
        "link": "https://www.jianshu.com/p/1eca5e32fad2",
        "niceDate": "1天前",
        "niceShareDate": "1天前",
        "origin": "",
        "prefix": "",
        "projectLink": "",
        "publishTime": 1595434089000,
        "realSuperChapterId": 156,
        "selfVisible": 0,
        "shareDate": 1595433892000,
        "shareUser": "鸿洋",
        "superChapterId": 135,
        "superChapterName": "项目必备",
        "tags": [],
        "title": "基于JSON RPC的一种Android跨进程调用解决方案了解一下？",
        "type": 0,
        "userId": 2,
        "visible": 1,
        "zan": 0
      },
      {
        "apkLink": "",
        "audit": 1,
        "author": "",
        "canEdit": false,
        "chapterId": 78,
        "chapterName": "性能优化",
        "collect": false,
        "courseId": 13,
        "desc": "",
        "descMd": "",
        "envelopePic": "",
        "fresh": false,
        "id": 14460,
        "link": "https://www.jianshu.com/p/ebbe8341c582",
        "niceDate": "1天前",
        "niceShareDate": "1天前",
        "origin": "",
        "prefix": "",
        "projectLink": "",
        "publishTime": 1595434028000,
        "realSuperChapterId": 53,
        "selfVisible": 0,
        "shareDate": 1595433931000,
        "shareUser": "鸿洋",
        "superChapterId": 81,
        "superChapterName": "热门专题",
        "tags": [],
        "title": "Android apk瘦身更佳实践(一)：去除R.class",
        "type": 0,
        "userId": 2,
        "visible": 1,
        "zan": 0
      },
      {
        "apkLink": "",
        "audit": 1,
        "author": "",
        "canEdit": false,
        "chapterId": 100,
        "chapterName": "RecyclerView",
        "collect": false,
        "courseId": 13,
        "desc": "",
        "descMd": "",
        "envelopePic": "",
        "fresh": false,
        "id": 14461,
        "link": "https://www.jianshu.com/p/3e9aa4bdaefd?utm_source=desktop&amp;utm_medium=timeline",
        "niceDate": "1天前",
        "niceShareDate": "1天前",
        "origin": "",
        "prefix": "",
        "projectLink": "",
        "publishTime": 1595434008000,
        "realSuperChapterId": 39,
        "selfVisible": 0,
        "shareDate": 1595433992000,
        "shareUser": "鸿洋",
        "superChapterId": 54,
        "superChapterName": "5.+高新技术",
        "tags": [],
        "title": "让你彻底掌握RecyclerView的缓存机制",
        "type": 0,
        "userId": 2,
        "visible": 1,
        "zan": 0
      },
      {
        "apkLink": "",
        "audit": 1,
        "author": "",
        "canEdit": false,
        "chapterId": 228,
        "chapterName": "辅助 or 工具类",
        "collect": false,
        "courseId": 13,
        "desc": "",
        "descMd": "",
        "envelopePic": "",
        "fresh": false,
        "id": 14452,
        "link": "https://www.jianshu.com/p/c6b043f20254",
        "niceDate": "1天前",
        "niceShareDate": "1天前",
        "origin": "",
        "prefix": "",
        "projectLink": "",
        "publishTime": 1595433757000,
        "realSuperChapterId": 156,
        "selfVisible": 0,
        "shareDate": 1595409914000,
        "shareUser": "深红骑士",
        "superChapterId": 135,
        "superChapterName": "项目必备",
        "tags": [],
        "title": "Android推送的群魔乱舞",
        "type": 0,
        "userId": 29303,
        "visible": 1,
        "zan": 0
      },
      {
        "apkLink": "",
        "audit": 1,
        "author": "美团技术团队",
        "canEdit": false,
        "chapterId": 417,
        "chapterName": "美团技术团队",
        "collect": false,
        "courseId": 13,
        "desc": "",
        "descMd": "",
        "envelopePic": "",
        "fresh": false,
        "id": 14472,
        "link": "https://mp.weixin.qq.com/s/632T-bwnKU2Ui4Uidpoylw",
        "niceDate": "1天前",
        "niceShareDate": "12小时前",
        "origin": "",
        "prefix": "",
        "projectLink": "",
        "publishTime": 1595433600000,
        "realSuperChapterId": 407,
        "selfVisible": 0,
        "shareDate": 1595514680000,
        "shareUser": "",
        "superChapterId": 408,
        "superChapterName": "公众号",
        "tags": [
          {
            "name": "公众号",
            "url": "/wxarticle/list/417/1"
          }
        ],
        "title": "美团搜索中NER技术的探索与实践",
        "type": 0,
        "userId": -1,
        "visible": 1,
        "zan": 0
      },
      {
        "apkLink": "",
        "audit": 1,
        "author": "code小生",
        "canEdit": false,
        "chapterId": 414,
        "chapterName": "code小生",
        "collect": false,
        "courseId": 13,
        "desc": "",
        "descMd": "",
        "envelopePic": "",
        "fresh": false,
        "id": 14473,
        "link": "https://mp.weixin.qq.com/s/KvOhI44jc4WRFVpHmJwO8g",
        "niceDate": "1天前",
        "niceShareDate": "12小时前",
        "origin": "",
        "prefix": "",
        "projectLink": "",
        "publishTime": 1595433600000,
        "realSuperChapterId": 407,
        "selfVisible": 0,
        "shareDate": 1595514694000,
        "shareUser": "",
        "superChapterId": 408,
        "superChapterName": "公众号",
        "tags": [
          {
            "name": "公众号",
            "url": "/wxarticle/list/414/1"
          }
        ],
        "title": "Android-模块化-面向接口编程",
        "type": 0,
        "userId": -1,
        "visible": 1,
        "zan": 0
      },
      {
        "apkLink": "",
        "audit": 1,
        "author": "鸿洋",
        "canEdit": false,
        "chapterId": 408,
        "chapterName": "鸿洋",
        "collect": false,
        "courseId": 13,
        "desc": "",
        "descMd": "",
        "envelopePic": "",
        "fresh": false,
        "id": 14474,
        "link": "https://mp.weixin.qq.com/s/BVQxgM-dpwoPJJ8P_c6u4w",
        "niceDate": "1天前",
        "niceShareDate": "12小时前",
        "origin": "",
        "prefix": "",
        "projectLink": "",
        "publishTime": 1595433600000,
        "realSuperChapterId": 407,
        "selfVisible": 0,
        "shareDate": 1595514718000,
        "shareUser": "",
        "superChapterId": 408,
        "superChapterName": "公众号",
        "tags": [
          {
            "name": "公众号",
            "url": "/wxarticle/list/408/1"
          }
        ],
        "title": "Android | 资源冲突覆盖的一些思考",
        "type": 0,
        "userId": -1,
        "visible": 1,
        "zan": 0
      },
      {
        "apkLink": "",
        "audit": 1,
        "author": "承香墨影",
        "canEdit": false,
        "chapterId": 411,
        "chapterName": "承香墨影",
        "collect": false,
        "courseId": 13,
        "desc": "",
        "descMd": "",
        "envelopePic": "",
        "fresh": false,
        "id": 14475,
        "link": "https://mp.weixin.qq.com/s/ZhB_DUA3juybE7eeFd6Lkw",
        "niceDate": "1天前",
        "niceShareDate": "12小时前",
        "origin": "",
        "prefix": "",
        "projectLink": "",
        "publishTime": 1595433600000,
        "realSuperChapterId": 407,
        "selfVisible": 0,
        "shareDate": 1595514733000,
        "shareUser": "",
        "superChapterId": 408,
        "superChapterName": "公众号",
        "tags": [
          {
            "name": "公众号",
            "url": "/wxarticle/list/411/1"
          }
        ],
        "title": "面试官：&quot;Handler的runWithScissors()了解吗？为什么Google不让开发者用？&quot;",
        "type": 0,
        "userId": -1,
        "visible": 1,
        "zan": 0
      },
      {
        "apkLink": "",
        "audit": 1,
        "author": "郭霖",
        "canEdit": false,
        "chapterId": 409,
        "chapterName": "郭霖",
        "collect": false,
        "courseId": 13,
        "desc": "",
        "descMd": "",
        "envelopePic": "",
        "fresh": false,
        "id": 14476,
        "link": "https://mp.weixin.qq.com/s/2nISG6QfyldoRDBe3XCB8A",
        "niceDate": "1天前",
        "niceShareDate": "12小时前",
        "origin": "",
        "prefix": "",
        "projectLink": "",
        "publishTime": 1595433600000,
        "realSuperChapterId": 407,
        "selfVisible": 0,
        "shareDate": 1595514749000,
        "shareUser": "",
        "superChapterId": 408,
        "superChapterName": "公众号",
        "tags": [
          {
            "name": "公众号",
            "url": "/wxarticle/list/409/1"
          }
        ],
        "title": "用不惯系统的？那就自定义个密码输入框吧",
        "type": 0,
        "userId": -1,
        "visible": 1,
        "zan": 0
      },
      {
        "apkLink": "",
        "audit": 1,
        "author": "",
        "canEdit": false,
        "chapterId": 502,
        "chapterName": "自助",
        "collect": false,
        "courseId": 13,
        "desc": "",
        "descMd": "",
        "envelopePic": "",
        "fresh": false,
        "id": 14456,
        "link": "https://blog.csdn.net/hfy8971613/article/details/107320238",
        "niceDate": "1天前",
        "niceShareDate": "1天前",
        "origin": "",
        "prefix": "",
        "projectLink": "",
        "publishTime": 1595430934000,
        "realSuperChapterId": 493,
        "selfVisible": 0,
        "shareDate": 1595430934000,
        "shareUser": "飞洋",
        "superChapterId": 494,
        "superChapterName": "广场Tab",
        "tags": [],
        "title": "你想要的Android性能优化系列：启动优化 ！",
        "type": 0,
        "userId": 31360,
        "visible": 1,
        "zan": 0
      },
      {
        "apkLink": "",
        "audit": 1,
        "author": "",
        "canEdit": false,
        "chapterId": 502,
        "chapterName": "自助",
        "collect": false,
        "courseId": 13,
        "desc": "",
        "descMd": "",
        "envelopePic": "",
        "fresh": false,
        "id": 14447,
        "link": "https://juejin.im/post/5f16e544e51d4534695c3c0a",
        "niceDate": "2天前",
        "niceShareDate": "2天前",
        "origin": "",
        "prefix": "",
        "projectLink": "",
        "publishTime": 1595377450000,
        "realSuperChapterId": 493,
        "selfVisible": 0,
        "shareDate": 1595377450000,
        "shareUser": "chs2018",
        "superChapterId": 494,
        "superChapterName": "广场Tab",
        "tags": [],
        "title": "Jetpack之MotionLayout",
        "type": 0,
        "userId": 9180,
        "visible": 1,
        "zan": 0
      },
      {
        "apkLink": "",
        "audit": 1,
        "author": "",
        "canEdit": false,
        "chapterId": 93,
        "chapterName": "基础知识",
        "collect": false,
        "courseId": 13,
        "desc": "",
        "descMd": "",
        "envelopePic": "",
        "fresh": false,
        "id": 14446,
        "link": "https://juejin.im/post/5f156c8de51d453476714a37",
        "niceDate": "2天前",
        "niceShareDate": "2天前",
        "origin": "",
        "prefix": "",
        "projectLink": "",
        "publishTime": 1595348088000,
        "realSuperChapterId": 37,
        "selfVisible": 0,
        "shareDate": 1595348037000,
        "shareUser": "鸿洋",
        "superChapterId": 126,
        "superChapterName": "自定义控件",
        "tags": [],
        "title": "Android进阶基础系列：View的工作原理 全面理解！",
        "type": 0,
        "userId": 2,
        "visible": 1,
        "zan": 0
      },
      {
        "apkLink": "",
        "audit": 1,
        "author": "code小生",
        "canEdit": false,
        "chapterId": 414,
        "chapterName": "code小生",
        "collect": false,
        "courseId": 13,
        "desc": "",
        "descMd": "",
        "envelopePic": "",
        "fresh": false,
        "id": 14453,
        "link": "https://mp.weixin.qq.com/s/esqAFOpFstym2pnhLXqNXA",
        "niceDate": "2天前",
        "niceShareDate": "1天前",
        "origin": "",
        "prefix": "",
        "projectLink": "",
        "publishTime": 1595347200000,
        "realSuperChapterId": 407,
        "selfVisible": 0,
        "shareDate": 1595425295000,
        "shareUser": "",
        "superChapterId": 408,
        "superChapterName": "公众号",
        "tags": [
          {
            "name": "公众号",
            "url": "/wxarticle/list/414/1"
          }
        ],
        "title": "RecyclerView 的曝光统计",
        "type": 0,
        "userId": -1,
        "visible": 1,
        "zan": 0
      },
      {
        "apkLink": "",
        "audit": 1,
        "author": "鸿洋",
        "canEdit": false,
        "chapterId": 408,
        "chapterName": "鸿洋",
        "collect": false,
        "courseId": 13,
        "desc": "",
        "descMd": "",
        "envelopePic": "",
        "fresh": false,
        "id": 14454,
        "link": "https://mp.weixin.qq.com/s/XWzBblkYsCa512a-6jyd6A",
        "niceDate": "2天前",
        "niceShareDate": "1天前",
        "origin": "",
        "prefix": "",
        "projectLink": "",
        "publishTime": 1595347200000,
        "realSuperChapterId": 407,
        "selfVisible": 0,
        "shareDate": 1595425310000,
        "shareUser": "",
        "superChapterId": 408,
        "superChapterName": "公众号",
        "tags": [
          {
            "name": "公众号",
            "url": "/wxarticle/list/408/1"
          }
        ],
        "title": "大佬们，一波RxJava 3.0来袭，请做好准备~",
        "type": 0,
        "userId": -1,
        "visible": 1,
        "zan": 0
      }
    ],
    "offset": 0,
    "over": false,
    "pageCount": 446,
    "size": 20,
    "total": 8916
  },
  "errorCode": 0,
  "errorMsg": ""
}