{
  "data": {
    "curPage": 3,
    "datas": [
      {
        "apkLink": "",
        "audit": 1,
        "author": "",
        "canEdit": false,
        "chapterId": 502,
        "chapterName": "自助",
        "collect": false,
        "courseId": 13,
        "desc": "",
        "descMd": "",
        "envelopePic": "",
        "fresh": false,
        "id": 14386,
        "link": "https://juejin.im/post/5f1261836fb9a07e8f2ef063",
        "niceDate": "2020-07-18 13:27",
        "niceShareDate": "2020-07-18 13:27",
        "origin": "",
        "prefix": "",
        "projectLink": "",
        "publishTime": 1595050049000,
        "realSuperChapterId": 493,
        "selfVisible": 0,
        "shareDate": 1595050049000,
        "shareUser": "哈利迪",
        "superChapterId": 494,
        "superChapterName": "广场Tab",
        "tags": [],
        "title": "Android | Glide细枝篇",
        "type": 0,
        "userId": 6999,
        "visible": 1,
        "zan": 0
      },
      {
        "apkLink": "",
        "audit": 1,
        "author": "谷歌开发者",
        "canEdit": false,
        "chapterId": 415,
        "chapterName": "谷歌开发者",
        "collect": false,
        "courseId": 13,
        "desc": "",
        "descMd": "",
        "envelopePic": "",
        "fresh": false,
        "id": 14430,
        "link": "https://mp.weixin.qq.com/s/FjAyR6YPvGy4nH8WsIdpZQ",
        "niceDate": "2020-07-18 00:00",
        "niceShareDate": "2020-07-20 23:14",
        "origin": "",
        "prefix": "",
        "projectLink": "",
        "publishTime": 1595001600000,
        "realSuperChapterId": 407,
        "selfVisible": 0,
        "shareDate": 1595258064000,
        "shareUser": "",
        "superChapterId": 408,
        "superChapterName": "公众号",
        "tags": [
          {
            "name": "公众号",
            "url": "/wxarticle/list/415/1"
          }
        ],
        "title": "协程中的取消和异常 | 异常处理详解",
        "type": 0,
        "userId": -1,
        "visible": 1,
        "zan": 0
      },
      {
        "apkLink": "",
        "audit": 1,
        "author": "谷歌开发者",
        "canEdit": false,
        "chapterId": 415,
        "chapterName": "谷歌开发者",
        "collect": false,
        "courseId": 13,
        "desc": "",
        "descMd": "",
        "envelopePic": "",
        "fresh": false,
        "id": 14431,
        "link": "https://mp.weixin.qq.com/s/5KG1P6lYwSdnhzfmVidEPA",
        "niceDate": "2020-07-18 00:00",
        "niceShareDate": "2020-07-20 23:14",
        "origin": "",
        "prefix": "",
        "projectLink": "",
        "publishTime": 1595001600000,
        "realSuperChapterId": 407,
        "selfVisible": 0,
        "shareDate": 1595258082000,
        "shareUser": "",
        "superChapterId": 408,
        "superChapterName": "公众号",
        "tags": [
          {
            "name": "公众号",
            "url": "/wxarticle/list/415/1"
          }
        ],
        "title": "Kotlin Vocabulary | 唯一的 &quot;对象&quot;",
        "type": 0,
        "userId": -1,
        "visible": 1,
        "zan": 0
      },
      {
        "apkLink": "",
        "audit": 1,
        "author": "程序亦非猿",
        "canEdit": false,
        "chapterId": 428,
        "chapterName": "程序亦非猿",
        "collect": false,
        "courseId": 13,
        "desc": "",
        "descMd": "",
        "envelopePic": "",
        "fresh": false,
        "id": 14432,
        "link": "https://mp.weixin.qq.com/s/vKMihc9lliJfShtEXuHK5g",
        "niceDate": "2020-07-18 00:00",
        "niceShareDate": "2020-07-20 23:15",
        "origin": "",
        "prefix": "",
        "projectLink": "",
        "publishTime": 1595001600000,
        "realSuperChapterId": 407,
        "selfVisible": 0,
        "shareDate": 1595258104000,
        "shareUser": "",
        "superChapterId": 408,
        "superChapterName": "公众号",
        "tags": [
          {
            "name": "公众号",
            "url": "/wxarticle/list/428/1"
          }
        ],
        "title": "Android p 使用 hidden api",
        "type": 0,
        "userId": -1,
        "visible": 1,
        "zan": 0
      },
      {
        "apkLink": "",
        "audit": 1,
        "author": "",
        "canEdit": false,
        "chapterId": 502,
        "chapterName": "自助",
        "collect": false,
        "courseId": 13,
        "desc": "",
        "descMd": "",
        "envelopePic": "",
        "fresh": false,
        "id": 14377,
        "link": "https://www.jianshu.com/p/924a4e160242",
        "niceDate": "2020-07-17 21:23",
        "niceShareDate": "2020-07-17 21:23",
        "origin": "",
        "prefix": "",
        "projectLink": "",
        "publishTime": 1594992205000,
        "realSuperChapterId": 493,
        "selfVisible": 0,
        "shareDate": 1594992205000,
        "shareUser": "折剑游侠",
        "superChapterId": 494,
        "superChapterName": "广场Tab",
        "tags": [],
        "title": "Android 2020面经分享",
        "type": 0,
        "userId": 28244,
        "visible": 1,
        "zan": 0
      },
      {
        "apkLink": "",
        "audit": 1,
        "author": "",
        "canEdit": false,
        "chapterId": 502,
        "chapterName": "自助",
        "collect": false,
        "courseId": 13,
        "desc": "",
        "descMd": "",
        "envelopePic": "",
        "fresh": false,
        "id": 14375,
        "link": "https://blog.csdn.net/summerrse/article/details/107414378",
        "niceDate": "2020-07-17 18:20",
        "niceShareDate": "2020-07-17 18:20",
        "origin": "",
        "prefix": "",
        "projectLink": "",
        "publishTime": 1594981232000,
        "realSuperChapterId": 493,
        "selfVisible": 0,
        "shareDate": 1594981232000,
        "shareUser": "zzs1994",
        "superChapterId": 494,
        "superChapterName": "广场Tab",
        "tags": [],
        "title": "Jetpack DataBinding数据绑定",
        "type": 0,
        "userId": 27843,
        "visible": 1,
        "zan": 0
      },
      {
        "apkLink": "",
        "audit": 1,
        "author": "",
        "canEdit": false,
        "chapterId": 502,
        "chapterName": "自助",
        "collect": false,
        "courseId": 13,
        "desc": "",
        "descMd": "",
        "envelopePic": "",
        "fresh": false,
        "id": 14373,
        "link": "https://mp.weixin.qq.com/s/o3XRNWIJCR-vlVj5OR6FJA",
        "niceDate": "2020-07-17 15:39",
        "niceShareDate": "2020-07-17 15:38",
        "origin": "",
        "prefix": "",
        "projectLink": "",
        "publishTime": 1594971546000,
        "realSuperChapterId": 493,
        "selfVisible": 0,
        "shareDate": 1594971539000,
        "shareUser": "徐公码字",
        "superChapterId": 494,
        "superChapterName": "广场Tab",
        "tags": [],
        "title": "面试官系列 - https 真的安全吗，可以抓包吗，如何防止抓包吗",
        "type": 0,
        "userId": 5339,
        "visible": 1,
        "zan": 0
      },
      {
        "apkLink": "",
        "audit": 1,
        "author": "",
        "canEdit": false,
        "chapterId": 502,
        "chapterName": "自助",
        "collect": false,
        "courseId": 13,
        "desc": "",
        "descMd": "",
        "envelopePic": "",
        "fresh": false,
        "id": 14370,
        "link": "https://www.jianshu.com/p/ef007ebd860f",
        "niceDate": "2020-07-17 11:21",
        "niceShareDate": "2020-07-17 11:21",
        "origin": "",
        "prefix": "",
        "projectLink": "",
        "publishTime": 1594956099000,
        "realSuperChapterId": 493,
        "selfVisible": 0,
        "shareDate": 1594956099000,
        "shareUser": "折剑游侠",
        "superChapterId": 494,
        "superChapterName": "广场Tab",
        "tags": [],
        "title": "Android rxjava源码浅析",
        "type": 0,
        "userId": 28244,
        "visible": 1,
        "zan": 0
      },
      {
        "apkLink": "",
        "audit": 1,
        "author": "",
        "canEdit": false,
        "chapterId": 502,
        "chapterName": "自助",
        "collect": false,
        "courseId": 13,
        "desc": "",
        "descMd": "",
        "envelopePic": "",
        "fresh": false,
        "id": 14369,
        "link": "https://blog.csdn.net/summerrse/article/details/107390106",
        "niceDate": "2020-07-17 09:02",
        "niceShareDate": "2020-07-17 09:02",
        "origin": "",
        "prefix": "",
        "projectLink": "",
        "publishTime": 1594947734000,
        "realSuperChapterId": 493,
        "selfVisible": 0,
        "shareDate": 1594947734000,
        "shareUser": "zzs1994",
        "superChapterId": 494,
        "superChapterName": "广场Tab",
        "tags": [],
        "title": "Jetpack Room数据库",
        "type": 0,
        "userId": 27843,
        "visible": 1,
        "zan": 0
      },
      {
        "apkLink": "",
        "audit": 1,
        "author": "鸿洋",
        "canEdit": false,
        "chapterId": 408,
        "chapterName": "鸿洋",
        "collect": false,
        "courseId": 13,
        "desc": "",
        "descMd": "",
        "envelopePic": "",
        "fresh": false,
        "id": 14380,
        "link": "https://mp.weixin.qq.com/s/Dc9h48oNsh82I760U1OdYg",
        "niceDate": "2020-07-17 00:00",
        "niceShareDate": "2020-07-17 23:27",
        "origin": "",
        "prefix": "",
        "projectLink": "",
        "publishTime": 1594915200000,
        "realSuperChapterId": 407,
        "selfVisible": 0,
        "shareDate": 1594999655000,
        "shareUser": "",
        "superChapterId": 408,
        "superChapterName": "公众号",
        "tags": [
          {
            "name": "公众号",
            "url": "/wxarticle/list/408/1"
          }
        ],
        "title": "关于Android 抓包 与 反抓包",
        "type": 0,
        "userId": -1,
        "visible": 1,
        "zan": 0
      },
      {
        "apkLink": "",
        "audit": 1,
        "author": "承香墨影",
        "canEdit": false,
        "chapterId": 411,
        "chapterName": "承香墨影",
        "collect": false,
        "courseId": 13,
        "desc": "",
        "descMd": "",
        "envelopePic": "",
        "fresh": false,
        "id": 14381,
        "link": "https://mp.weixin.qq.com/s/OfTcJMn_PCOQYECL3EgLTQ",
        "niceDate": "2020-07-17 00:00",
        "niceShareDate": "2020-07-17 23:27",
        "origin": "",
        "prefix": "",
        "projectLink": "",
        "publishTime": 1594915200000,
        "realSuperChapterId": 407,
        "selfVisible": 0,
        "shareDate": 1594999678000,
        "shareUser": "",
        "superChapterId": 408,
        "superChapterName": "公众号",
        "tags": [
          {
            "name": "公众号",
            "url": "/wxarticle/list/411/1"
          }
        ],
        "title": "Android App 链式唤醒分析",
        "type": 0,
        "userId": -1,
        "visible": 1,
        "zan": 0
      },
      {
        "apkLink": "",
        "audit": 1,
        "author": "郭霖",
        "canEdit": false,
        "chapterId": 409,
        "chapterName": "郭霖",
        "collect": false,
        "courseId": 13,
        "desc": "",
        "descMd": "",
        "envelopePic": "",
        "fresh": false,
        "id": 14382,
        "link": "https://mp.weixin.qq.com/s/sL1kjS5G08ZBImLD1mKYDA",
        "niceDate": "2020-07-17 00:00",
        "niceShareDate": "2020-07-17 23:28",
        "origin": "",
        "prefix": "",
        "projectLink": "",
        "publishTime": 1594915200000,
        "realSuperChapterId": 407,
        "selfVisible": 0,
        "shareDate": 1594999695000,
        "shareUser": "",
        "superChapterId": 408,
        "superChapterName": "公众号",
        "tags": [
          {
            "name": "公众号",
            "url": "/wxarticle/list/409/1"
          }
        ],
        "title": "APP全链路用户路径分析",
        "type": 0,
        "userId": -1,
        "visible": 1,
        "zan": 0
      },
      {
        "apkLink": "",
        "audit": 1,
        "author": "",
        "canEdit": false,
        "chapterId": 502,
        "chapterName": "自助",
        "collect": false,
        "courseId": 13,
        "desc": "",
        "descMd": "",
        "envelopePic": "",
        "fresh": false,
        "id": 14354,
        "link": "https://juejin.im/post/5f0ad4a95188252e873c22fe",
        "niceDate": "2020-07-16 10:34",
        "niceShareDate": "2020-07-16 10:34",
        "origin": "",
        "prefix": "",
        "projectLink": "",
        "publishTime": 1594866862000,
        "realSuperChapterId": 493,
        "selfVisible": 0,
        "shareDate": 1594866862000,
        "shareUser": "逮虾户",
        "superChapterId": 494,
        "superChapterName": "广场Tab",
        "tags": [],
        "title": "更近面试碰到的两道算法题｜面试相关",
        "type": 0,
        "userId": 63284,
        "visible": 1,
        "zan": 0
      },
      {
        "apkLink": "",
        "audit": 1,
        "author": "美团技术团队",
        "canEdit": false,
        "chapterId": 417,
        "chapterName": "美团技术团队",
        "collect": false,
        "courseId": 13,
        "desc": "",
        "descMd": "",
        "envelopePic": "",
        "fresh": false,
        "id": 14362,
        "link": "https://mp.weixin.qq.com/s/eONsdn_wZqP4TECbBJjRaA",
        "niceDate": "2020-07-16 00:00",
        "niceShareDate": "2020-07-16 22:43",
        "origin": "",
        "prefix": "",
        "projectLink": "",
        "publishTime": 1594828800000,
        "realSuperChapterId": 407,
        "selfVisible": 0,
        "shareDate": 1594910614000,
        "shareUser": "",
        "superChapterId": 408,
        "superChapterName": "公众号",
        "tags": [
          {
            "name": "公众号",
            "url": "/wxarticle/list/417/1"
          }
        ],
        "title": "智能搜索模型预估框架的建设与实践",
        "type": 0,
        "userId": -1,
        "visible": 1,
        "zan": 0
      },
      {
        "apkLink": "",
        "audit": 1,
        "author": "鸿洋",
        "canEdit": false,
        "chapterId": 408,
        "chapterName": "鸿洋",
        "collect": false,
        "courseId": 13,
        "desc": "",
        "descMd": "",
        "envelopePic": "",
        "fresh": false,
        "id": 14363,
        "link": "https://mp.weixin.qq.com/s/mzIonVXczvFX3RTPXXMakw",
        "niceDate": "2020-07-16 00:00",
        "niceShareDate": "2020-07-16 22:43",
        "origin": "",
        "prefix": "",
        "projectLink": "",
        "publishTime": 1594828800000,
        "realSuperChapterId": 407,
        "selfVisible": 0,
        "shareDate": 1594910630000,
        "shareUser": "",
        "superChapterId": 408,
        "superChapterName": "公众号",
        "tags": [
          {
            "name": "公众号",
            "url": "/wxarticle/list/408/1"
          }
        ],
        "title": "直面底层：你真的了解 View.post() 原理吗？",
        "type": 0,
        "userId": -1,
        "visible": 1,
        "zan": 0
      },
      {
        "apkLink": "",
        "audit": 1,
        "author": "承香墨影",
        "canEdit": false,
        "chapterId": 411,
        "chapterName": "承香墨影",
        "collect": false,
        "courseId": 13,
        "desc": "",
        "descMd": "",
        "envelopePic": "",
        "fresh": false,
        "id": 14364,
        "link": "https://mp.weixin.qq.com/s/G3BKLbu1gjIIf8-qY6DFBg",
        "niceDate": "2020-07-16 00:00",
        "niceShareDate": "2020-07-16 22:44",
        "origin": "",
        "prefix": "",
        "projectLink": "",
        "publishTime": 1594828800000,
        "realSuperChapterId": 407,
        "selfVisible": 0,
        "shareDate": 1594910648000,
        "shareUser": "",
        "superChapterId": 408,
        "superChapterName": "公众号",
        "tags": [
          {
            "name": "公众号",
            "url": "/wxarticle/list/411/1"
          }
        ],
        "title": "ViewGroup 默认顺序绘制子 View，如何修改？什么场景需要修改绘制顺序？",
        "type": 0,
        "userId": -1,
        "visible": 1,
        "zan": 0
      },
      {
        "apkLink": "",
        "audit": 1,
        "author": "",
        "canEdit": false,
        "chapterId": 528,
        "chapterName": "优秀的博客",
        "collect": false,
        "courseId": 13,
        "desc": "",
        "descMd": "",
        "envelopePic": "",
        "fresh": false,
        "id": 14344,
        "link": "https://www.wenyingzhi.com/mu-lu/shu-ju-lei-xing",
        "niceDate": "2020-07-15 23:02",
        "niceShareDate": "2020-07-15 21:55",
        "origin": "",
        "prefix": "",
        "projectLink": "",
        "publishTime": 1594825332000,
        "realSuperChapterId": 271,
        "selfVisible": 0,
        "shareDate": 1594821348000,
        "shareUser": "鸿洋",
        "superChapterId": 272,
        "superChapterName": "导航主Tab",
        "tags": [
          {
            "name": "导航",
            "url": "/navi#528"
          }
        ],
        "title": "wenyingzhi的博客站点",
        "type": 0,
        "userId": 2,
        "visible": 1,
        "zan": 0
      },
      {
        "apkLink": "",
        "audit": 1,
        "author": "",
        "canEdit": false,
        "chapterId": 375,
        "chapterName": "Flutter",
        "collect": false,
        "courseId": 13,
        "desc": "",
        "descMd": "",
        "envelopePic": "",
        "fresh": false,
        "id": 14307,
        "link": "https://juejin.im/post/5f07e5bd6fb9a07e7f6bdf16",
        "niceDate": "2020-07-15 23:01",
        "niceShareDate": "2020-07-15 08:43",
        "origin": "",
        "prefix": "",
        "projectLink": "",
        "publishTime": 1594825301000,
        "realSuperChapterId": 374,
        "selfVisible": 0,
        "shareDate": 1594773839000,
        "shareUser": "goweii",
        "superChapterId": 375,
        "superChapterName": "跨平台",
        "tags": [],
        "title": "40分钟快速入门Dart基础（上）",
        "type": 0,
        "userId": 20382,
        "visible": 1,
        "zan": 0
      },
      {
        "apkLink": "",
        "audit": 1,
        "author": "",
        "canEdit": false,
        "chapterId": 502,
        "chapterName": "自助",
        "collect": false,
        "courseId": 13,
        "desc": "",
        "descMd": "",
        "envelopePic": "",
        "fresh": false,
        "id": 14337,
        "link": "https://juejin.im/post/5f0ec887e51d45349917c614",
        "niceDate": "2020-07-15 18:15",
        "niceShareDate": "2020-07-15 18:15",
        "origin": "",
        "prefix": "",
        "projectLink": "",
        "publishTime": 1594808144000,
        "realSuperChapterId": 493,
        "selfVisible": 0,
        "shareDate": 1594808144000,
        "shareUser": "哈利迪",
        "superChapterId": 494,
        "superChapterName": "广场Tab",
        "tags": [],
        "title": "Android | 《看完不忘系列》之Glide",
        "type": 0,
        "userId": 6999,
        "visible": 1,
        "zan": 0
      },
      {
        "apkLink": "",
        "audit": 1,
        "author": "",
        "canEdit": false,
        "chapterId": 459,
        "chapterName": "Activity",
        "collect": false,
        "courseId": 13,
        "desc": "",
        "descMd": "",
        "envelopePic": "",
        "fresh": false,
        "id": 14298,
        "link": "https://www.jianshu.com/p/e3c89f62d49f",
        "niceDate": "2020-07-15 00:50",
        "niceShareDate": "2020-07-14 21:20",
        "origin": "",
        "prefix": "",
        "projectLink": "",
        "publishTime": 1594745425000,
        "realSuperChapterId": 152,
        "selfVisible": 0,
        "shareDate": 1594732828000,
        "shareUser": "深红骑士",
        "superChapterId": 173,
        "superChapterName": "framework",
        "tags": [],
        "title": "Activity的启动过程详解（基于10.0源码）",
        "type": 0,
        "userId": 29303,
        "visible": 1,
        "zan": 0
      }
    ],
    "offset": 40,
    "over": false,
    "pageCount": 446,
    "size": 20,
    "total": 8916
  },
  "errorCode": 0,
  "errorMsg": ""
}